<svg width="16" height="17" viewBox="0 0 16 17" fill="none" xmlns="http://www.w3.org/2000/svg">
<path d="M16 8.5C16 10.6217 15.1571 12.6566 13.6569 14.1569C12.1566 15.6571 10.1217 16.5 8 16.5C5.87827 16.5 3.84344 15.6571 2.34315 14.1569C0.842855 12.6566 0 10.6217 0 8.5C0 6.37827 0.842855 4.34344 2.34315 2.84315C3.84344 1.34285 5.87827 0.5 8 0.5C10.1217 0.5 12.1566 1.34285 13.6569 2.84315C15.1571 4.34344 16 6.37827 16 8.5ZM8.287 6.406C7.50833 6.73 5.953 7.4 3.621 8.416C3.243 8.566 3.04467 8.71333 3.026 8.858C2.996 9.101 3.301 9.197 3.716 9.328L3.891 9.383C4.299 9.516 4.849 9.671 5.134 9.677C5.394 9.68367 5.68333 9.577 6.002 9.357C8.18133 7.88633 9.306 7.143 9.376 7.127C9.426 7.115 9.496 7.101 9.542 7.143C9.588 7.185 9.584 7.263 9.579 7.284C9.549 7.413 8.352 8.525 7.733 9.101C7.54 9.281 7.403 9.408 7.375 9.437C7.31336 9.50003 7.25069 9.56204 7.187 9.623C6.807 9.989 6.523 10.263 7.202 10.711C7.529 10.927 7.791 11.104 8.052 11.282C8.336 11.476 8.62 11.669 8.988 11.911C9.08133 11.9723 9.17133 12.0347 9.258 12.098C9.589 12.334 9.888 12.546 10.255 12.512C10.469 12.492 10.69 12.292 10.802 11.692C11.067 10.275 11.588 7.206 11.708 5.941C11.7155 5.83585 11.7112 5.73018 11.695 5.626C11.6853 5.54201 11.6447 5.46464 11.581 5.409C11.4899 5.34644 11.3815 5.31392 11.271 5.316C10.971 5.321 10.508 5.482 8.287 6.406Z" fill="black"/>
</svg>
