<svg width="42" height="30" viewBox="0 0 42 30" fill="none" xmlns="http://www.w3.org/2000/svg">
<g clip-path="url(#clip0_153_1421)">
<path d="M3.85714 29H12.4286L18.1429 17.8V1H1V17.8H9.57143L3.85714 29ZM26.7143 29H35.2857L41 17.8V1H23.8571V17.8H32.4286L26.7143 29Z" fill="url(#paint0_linear_153_1421)" fill-opacity="0.3"/>
</g>
<defs>
<linearGradient id="paint0_linear_153_1421" x1="1" y1="15" x2="41" y2="15" gradientUnits="userSpaceOnUse">
<stop stop-color="#FFCC00"/>
<stop offset="1" stop-color="#EE89FF"/>
</linearGradient>
<clipPath id="clip0_153_1421">
<rect width="42" height="30" fill="white"/>
</clipPath>
</defs>
</svg>
